{
    "networkConfig": {
        "napIP": "10.100.104.160",
        "mp1IP": "/etc/resolv.conf",
        "mp2IP": "/etc/resolv.conf",
        "mmpPort": 3001,
        "napPort": 12345,
        "cdsTestIP": "192.168.29.112",
        "cdsTestListenPort": 6001,
        "cdsTestReceivePort": 6050
    },
    "comPort": "/dev/ttyUSB0",
    "isTestTune": true,
    "isSingleUA": true,
    "presets": [
        {
            "presetId": "SKYHARBOR",
            "slots": [
                {
                    "callsign": "TOWERPHX",
                    "band": 118.700
                },
                {
                    "callsign": "GROUND",
                    "band": 119.750
                },
                {
                    "callsign": "GROUND-N",
                    "band": 132.550
                },
                {
                    "callsign": "GROUND-S",
                    "band": 269.200
                },
                {
                    "callsign": "WEATHER",
                    "band": 162.550
                }
            ]
        },
        {
            "presetId": "FALCON FFZ",
            "slots": [
                {
                    "callsign": "ATIS",
                    "band": 118.250
                },
                {
                    "callsign": "TOWERFFZ",
                    "band": 124.600
                },
                {
                    "callsign": "GROUND",
                    "band": 121.300
                },
                {
                    "callsign": "",
                    "band": 0
                },
                {
                    "callsign": "WEATHER",
                    "band": 162.550
                }
            ]
        },
        {
            "presetId": "DENVER",
            "slots": [
                {
                    "callsign": "TOWER-W",
                    "band": 124.300
                },
                {
                    "callsign": "GND-WEST",
                    "band": 121.350
                },
                {
                    "callsign": "APPROACH",
                    "band": 119.300
                },
                {
                    "callsign": "DEPART",
                    "band": 126.100
                },
                {
                    "callsign": "WEATHER",
                    "band": 162.550
                }
            ]
        }
    ]
}